{
    "parameters": {
        "debug": true,
        "auth": {
            "client_id": "",
            "#client_secret": "",
            "redirect_uri": "",
            "resource": "",
            "#refresh_token": ""
        },
        "extract_by_modifiedon": {
            "hours_back": "72",
            "endpoints": [
                {
                    "endpoint": "accounts?$top=300",
                    "tablename": "accounts_last_72_hours",
                    "primary_key": ["accountid"]
                }
            ]
        },
        "extract_all": [
            {
                "endpoint": "accounts?$top=300"
            },
            {
                "endpoint": "contacts?$top=300",
                "tablename": "contacts_top300"
            }
        ]
    }
}
